<svg xmlns="http://www.w3.org/2000/svg" viewBox="0 0 48.354 54.517">
  <g transform="matrix(1.33333 0 0 -1.33333 0 54.517)">
    <path d="M36.266 9.965H0v4.29c0 .55.45 1 1 1h34.266c.55 0 1-.45 1-1z" />
    <path d="M5.575 0c-.8 0-1.452.654-1.452 1.452v8.93c0 .8.653 1.453 1.452 1.453.8 0 1.452-.654 1.452-1.453v-8.93C7.027.654 6.374 0 5.575 0M30.69 0c-.798 0-1.45.654-1.45 1.452v8.93c0 .8.652 1.453 1.45 1.453.8 0 1.453-.654 1.453-1.453v-8.93C32.143.654 31.49 0 30.69 0M13.14 18.313h9.984c.13 0 .244.207.287.516.045.31.007.653-.093.86l-3.73 2.27v6.365c0 .428-.135.775-.303.775h-2.3c-.168 0-.304-.346-.304-.774V21.96l-3.73-2.27c-.1-.206-.14-.552-.096-.862.043-.31.158-.515.287-.515m4.66 16.165c-.87 0-1.578.706-1.578 1.578 0 .87.707 1.578 1.578 1.578.87 0 1.578-.707 1.578-1.578 0-.872-.707-1.578-1.578-1.578m4.832 1.578c0 .75-.545 1.344-1.254 1.482.404.6.37 1.405-.16 1.935s-1.337.565-1.936.16c-.138.71-.733 1.255-1.482 1.255-.75 0-1.344-.545-1.482-1.254-.6.404-1.405.37-1.935-.16s-.565-1.337-.16-1.936c-.71-.138-1.255-.733-1.255-1.482 0-.75.545-1.344 1.254-1.482-.404-.6-.37-1.405.16-1.935s1.337-.567 1.936-.163c.138-.71.733-1.254 1.482-1.254.75 0 1.344.545 1.482 1.254.6-.404 1.405-.37 1.935.16s.565 1.337.16 1.936c.71.138 1.255.733 1.255 1.482" />
  </g>
</svg>
