<?xml version="1.0" encoding="UTF-8" standalone="no"?>
<svg
   xmlns:dc="http://purl.org/dc/elements/1.1/"
   xmlns:cc="http://creativecommons.org/ns#"
   xmlns:rdf="http://www.w3.org/1999/02/22-rdf-syntax-ns#"
   xmlns:svg="http://www.w3.org/2000/svg"
   xmlns="http://www.w3.org/2000/svg"
   viewBox="0 0 94.892532 43.978535"
   height="43.978535"
   width="94.892532"
   xml:space="preserve"
   id="svg2"
   version="1.1"><metadata
     id="metadata8"><rdf:RDF><cc:Work
         rdf:about=""><dc:format>image/svg+xml</dc:format><dc:type
           rdf:resource="http://purl.org/dc/dcmitype/StillImage" /></cc:Work></rdf:RDF></metadata><defs
     id="defs6"><clipPath
       id="clipPath22"
       clipPathUnits="userSpaceOnUse"><path
         id="path20"
         d="M 0,32.984 H 71.169 V 0 H 0 Z" /></clipPath></defs><g
     transform="matrix(1.3333333,0,0,-1.3333333,0,43.978533)"
     id="g10"><g
       transform="translate(26.2098)"
       id="g12"><path
         id="path14"
         style="fill:#2c2828;fill-opacity:1;fill-rule:nonzero;stroke:none"
         d="m 0,0 17.853,10.271 -5.894,9.17 z" /></g><g
       id="g16"><g
         clip-path="url(#clipPath22)"
         id="g18"><g
           transform="translate(24.5303,1.0875)"
           id="g24"><path
             id="path26"
             style="fill:#2c2828;fill-opacity:1;fill-rule:nonzero;stroke:none"
             d="m 0,0 -12.958,21.555 35.199,10.341 4.245,-6.407 -11.671,-3.287 c 0,0 -1.306,-0.242 -2.028,-1.416 C 12.065,19.612 0,0 0,0" /></g><g
           transform="translate(0,2.8536)"
           id="g28"><path
             id="path30"
             style="fill:#2c2828;fill-opacity:1;fill-rule:nonzero;stroke:none"
             d="M 0,0 15.825,8.567 9.8,18.361" /></g><g
           transform="translate(55.3815,19.8143)"
           id="g32"><path
             id="path34"
             style="fill:#2c2828;fill-opacity:1;fill-rule:nonzero;stroke:none"
             d="m 0,0 c -1.073,0 -1.942,-0.87 -1.942,-1.942 0,-1.073 0.869,-1.943 1.942,-1.943 1.073,0 1.942,0.87 1.942,1.943 C 1.942,-0.87 1.073,0 0,0" /></g><g
           transform="translate(55.3815,10.4155)"
           id="g36"><path
             id="path38"
             style="fill:#2c2828;fill-opacity:1;fill-rule:nonzero;stroke:none"
             d="m 0,0 c 0,0 -3.572,5.484 -3.572,7.456 0,1.973 1.599,3.572 3.572,3.572 1.972,0 3.572,-1.599 3.572,-3.572 C 3.572,5.484 0,0 0,0 m 6.92,17.26 -22.886,-6.444 12.058,-19.6 19.696,11.63 z" /></g></g></g></g></svg>