<?xml version="1.0" encoding="UTF-8" standalone="no"?>
<svg
   xmlns:dc="http://purl.org/dc/elements/1.1/"
   xmlns:cc="http://creativecommons.org/ns#"
   xmlns:rdf="http://www.w3.org/1999/02/22-rdf-syntax-ns#"
   xmlns:svg="http://www.w3.org/2000/svg"
   xmlns="http://www.w3.org/2000/svg"
   viewBox="0 0 1411.9467 283.68799"
   height="283.68799"
   width="1411.9467"
   xml:space="preserve"
   id="svg2"
   version="1.1"><metadata
     id="metadata8"><rdf:RDF><cc:Work
         rdf:about=""><dc:format>image/svg+xml</dc:format><dc:type
           rdf:resource="http://purl.org/dc/dcmitype/StillImage" /></cc:Work></rdf:RDF></metadata><defs
     id="defs6"><clipPath
       id="clipPath18"
       clipPathUnits="userSpaceOnUse"><path
         id="path16"
         d="M 0,212.766 H 1058.959 V 0 H 0 Z" /></clipPath></defs><g
     transform="matrix(1.3333333,0,0,-1.3333333,0,283.688)"
     id="g10"><g
       id="g12"><g
         clip-path="url(#clipPath18)"
         id="g14"><g
           transform="translate(333.7899,62.0417)"
           id="g20"><path
             id="path22"
             style="fill:#252323;fill-opacity:1;fill-rule:nonzero;stroke:none"
             d="m 0,0 v -8.835 l 2.649,1.469 10.591,-5.851 v 6.861 c -1.43,1.44 -3.229,2.928 -5.359,4.047 C 5.492,-1.062 2.422,-0.378 0,0 m -127.809,59.506 v -8.84 l 2.649,1.479 10.591,-5.861 v 6.861 c -1.435,1.445 -3.23,2.938 -5.364,4.052 -2.38,1.247 -5.454,1.931 -7.876,2.309 M -85.208,0 v -8.835 l 2.649,1.469 10.596,-5.851 v 6.861 c -1.44,1.44 -3.234,2.928 -5.368,4.047 -2.385,1.247 -5.454,1.931 -7.877,2.309 m 42.607,59.506 v -8.84 l 2.648,1.479 10.587,-5.861 v 6.861 c -1.431,1.445 -3.225,2.938 -5.355,4.052 -2.389,1.247 -5.463,1.931 -7.88,2.309 m -85.208,59.497 v -8.835 l 2.649,1.478 10.591,-5.851 v 6.857 c -1.435,1.435 -3.23,2.941 -5.364,4.056 -2.38,1.237 -5.454,1.917 -7.876,2.295 M -42.601,0 v -8.835 l 2.648,1.469 10.587,-5.851 v 6.861 c -1.431,1.44 -3.225,2.928 -5.355,4.047 -2.389,1.247 -5.463,1.931 -7.88,2.309 m 0,119.003 v -8.835 l 2.648,1.478 10.587,-5.851 v 6.857 c -1.431,1.435 -3.225,2.941 -5.355,4.056 -2.389,1.237 -5.463,1.917 -7.88,2.295 M -127.809,0 v -8.835 l 2.649,1.469 10.591,-5.851 v 6.861 c -1.435,1.44 -3.23,2.928 -5.364,4.047 -2.38,1.247 -5.454,1.931 -7.876,2.309 M 39.263,150.725 H -165.858 V -62.041 H 39.263 Z m -151.183,-182.787 -2.649,1.478 v 8.216 l 2.649,1.478 z m 1.2,30.131 v -9.303 c 0,0 -0.435,0.728 -1.2,1.781 v -8.24 l -0.075,0.038 -15.814,-8.835 v -14.449 l -2.644,1.468 v 11.163 l -13.245,7.328 v -11.195 l -2.64,1.482 v 14.44 l 15.903,8.887 -0.018,0.014 V 0.33 c -0.817,0.076 -1.337,0.104 -1.337,0.104 v 8.514 l 2.64,1.572 c 0,0 5.713,0.841 12.093,-2.587 7.073,-3.801 8.986,-8.287 8.986,-8.287 z m -3.849,30.848 v 8.212 l 2.649,1.482 V 27.435 Z m 3.849,28.662 v -9.307 c 0,0 -0.435,0.723 -1.2,1.771 v -8.235 l -0.075,0.038 -15.814,-8.83 V 18.567 l -2.644,1.473 v 11.158 l -13.245,7.319 V 27.331 l -2.64,1.478 v 14.449 l 15.903,8.877 -0.018,0.01 v 7.687 c -0.817,0.08 -1.337,0.094 -1.337,0.094 v 8.523 l 2.64,1.582 c 0,0 5.713,0.831 12.093,-2.587 7.073,-3.806 8.986,-8.297 8.986,-8.297 z m -3.849,30.839 v 8.221 l 2.649,1.483 V 86.945 Z m 3.849,28.658 v -9.298 c 0,0 -0.435,0.728 -1.2,1.771 v -8.235 l -0.075,0.043 -15.814,-8.835 V 78.068 l -2.644,1.478 v 11.163 l -13.245,7.314 V 86.827 l -2.64,1.483 v 14.44 l 15.903,8.896 -0.018,0.004 v 7.688 c -0.817,0.085 -1.337,0.099 -1.337,0.099 v 8.518 l 2.64,1.582 c 0,0 5.713,0.826 12.093,-2.592 7.073,-3.797 8.986,-8.292 8.986,-8.292 z m 41.402,-149.138 -2.645,1.478 v 8.216 l 2.645,1.478 z m 1.199,30.131 v -9.303 c 0,0 -0.434,0.728 -1.199,1.781 v -8.24 l -0.071,0.038 -15.819,-8.835 v -14.449 l -2.639,1.468 v 11.163 l -13.245,7.328 v -11.195 l -2.649,1.482 v 14.44 l 15.908,8.887 -0.014,0.014 V 0.33 c -0.822,0.076 -1.341,0.104 -1.341,0.104 v 8.514 l 2.644,1.572 c 0,0 5.709,0.841 12.088,-2.587 7.074,-3.801 8.986,-8.287 8.986,-8.287 z m -3.844,30.848 v 8.212 l 2.645,1.482 V 27.435 Z m 3.844,28.662 v -9.307 c 0,0 -0.434,0.723 -1.199,1.771 v -8.235 l -0.071,0.038 -15.819,-8.83 V 18.567 l -2.639,1.473 v 11.158 l -13.245,7.319 V 27.331 l -2.649,1.478 v 14.449 l 15.908,8.877 -0.014,0.01 v 7.687 c -0.822,0.08 -1.341,0.094 -1.341,0.094 v 8.523 l 2.644,1.582 c 0,0 5.709,0.831 12.088,-2.587 7.074,-3.806 8.986,-8.297 8.986,-8.297 z m -3.844,30.839 v 8.221 l 2.645,1.483 V 86.945 Z m 3.844,28.658 v -9.298 c 0,0 -0.434,0.728 -1.199,1.771 v -8.235 l -0.071,0.043 -15.819,-8.835 V 78.068 l -2.639,1.478 v 11.163 l -13.245,7.314 V 86.827 l -2.649,1.483 v 14.44 l 15.908,8.896 -0.014,0.004 v 7.688 c -0.822,0.085 -1.341,0.099 -1.341,0.099 v 8.518 l 2.644,1.582 c 0,0 5.709,0.826 12.088,-2.592 7.074,-3.797 8.986,-8.292 8.986,-8.292 z m 41.402,-149.138 -2.649,1.478 v 8.216 l 2.649,1.478 z m 1.204,30.131 v -9.303 c 0,0 -0.434,0.728 -1.204,1.781 v -8.24 l -0.071,0.038 -15.813,-8.835 v -14.449 l -2.645,1.468 v 11.163 l -13.25,7.328 v -11.195 l -2.639,1.482 v 14.44 l 15.903,8.887 -0.014,0.014 V 0.33 c -0.817,0.076 -1.341,0.104 -1.341,0.104 v 8.514 l 2.649,1.572 c 0,0 5.709,0.841 12.079,-2.587 7.083,-3.801 8.991,-8.287 8.991,-8.287 z m -3.853,30.848 v 8.212 l 2.649,1.482 V 27.435 Z m 3.853,28.662 v -9.307 c 0,0 -0.434,0.723 -1.204,1.771 v -8.235 l -0.071,0.038 -15.813,-8.83 V 18.567 l -2.645,1.473 v 11.158 l -13.25,7.319 V 27.331 l -2.639,1.478 v 14.449 l 15.903,8.877 -0.014,0.01 v 7.687 c -0.817,0.08 -1.341,0.094 -1.341,0.094 v 8.523 l 2.649,1.582 c 0,0 5.709,0.831 12.079,-2.587 7.083,-3.806 8.991,-8.297 8.991,-8.297 z m -3.853,30.839 v 8.221 l 2.649,1.483 V 86.945 Z m 3.853,28.658 v -9.298 c 0,0 -0.434,0.728 -1.204,1.771 v -8.235 l -0.071,0.043 -15.813,-8.835 V 78.068 l -2.645,1.478 v 11.163 l -13.25,7.314 V 86.827 l -2.639,1.483 v 14.44 l 15.903,8.896 -0.014,0.004 v 7.688 c -0.817,0.085 -1.341,0.099 -1.341,0.099 v 8.518 l 2.649,1.582 c 0,0 5.709,0.826 12.079,-2.592 7.083,-3.797 8.991,-8.292 8.991,-8.292 z m 41.398,-149.138 -2.645,1.478 v 8.216 l 2.645,1.478 z m 1.204,30.131 v -9.303 c 0,0 -0.435,0.728 -1.204,1.781 v -8.24 L 15.814,-17.655 0,-26.49 v -14.449 l -2.649,1.468 v 11.163 l -13.24,7.328 v -11.195 l -2.64,1.482 v 14.44 l 15.903,8.887 -0.023,0.014 V 0.33 c -0.817,0.076 -1.336,0.104 -1.336,0.104 v 8.514 l 2.644,1.572 c 0,0 5.714,0.841 12.088,-2.587 7.078,-3.801 8.986,-8.287 8.986,-8.287 z M 13.24,28.917 v 8.212 l 2.645,1.482 V 27.435 Z m 3.849,28.662 v -9.307 c 0,0 -0.435,0.723 -1.204,1.771 V 41.808 L 15.814,41.846 0,33.016 V 18.567 l -2.649,1.473 v 11.158 l -13.24,7.319 V 27.331 l -2.64,1.478 v 14.449 l 15.903,8.877 -0.023,0.01 v 7.687 c -0.817,0.08 -1.336,0.094 -1.336,0.094 v 8.523 l 2.644,1.582 c 0,0 5.714,0.831 12.088,-2.587 7.078,-3.806 8.986,-8.297 8.986,-8.297 z M 13.24,88.418 v 8.221 l 2.645,1.483 V 86.945 Z m 3.849,28.658 v -9.298 c 0,0 -0.435,0.728 -1.204,1.771 v -8.235 L 15.814,101.357 0,92.522 V 78.068 l -2.649,1.478 v 11.163 l -13.24,7.314 V 86.827 l -2.64,1.483 v 14.44 l 15.903,8.896 -0.023,0.004 v 7.688 c -0.817,0.085 -1.336,0.099 -1.336,0.099 v 8.518 l 2.644,1.582 c 0,0 5.714,0.826 12.088,-2.592 7.078,-3.797 8.986,-8.292 8.986,-8.292 z M 0,119.003 v -8.835 l 2.649,1.478 10.591,-5.851 v 6.857 c -1.43,1.435 -3.229,2.941 -5.359,4.056 -2.389,1.237 -5.459,1.917 -7.881,2.295 m -85.208,0 v -8.835 l 2.649,1.478 10.596,-5.851 v 6.857 c -1.44,1.435 -3.234,2.941 -5.368,4.056 -2.385,1.237 -5.454,1.917 -7.877,2.295 m 0,-59.497 v -8.84 l 2.649,1.479 10.596,-5.861 v 6.861 c -1.44,1.445 -3.234,2.938 -5.368,4.052 -2.385,1.247 -5.454,1.931 -7.877,2.309 m 85.208,0 v -8.84 l 2.649,1.479 10.591,-5.861 v 6.861 C 11.81,54.59 10.011,56.083 7.881,57.197 5.492,58.444 2.422,59.128 0,59.506" /></g><g
           transform="translate(445.7782,68.6799)"
           id="g24"><path
             id="path26"
             style="fill:#242021;fill-opacity:1;fill-rule:nonzero;stroke:none"
             d="M 0,0 H 10.7 V -34.4 H 2.596 v 23.245 c -2.753,-5.773 -6.546,-14.56 -8.934,-20.382 h -6.65 c -2.285,5.725 -5.87,14.856 -8.468,20.382 V -34.4 h -8.102 V 0 h 11.219 c 3.013,-5.725 6.599,-13.67 9.299,-20.137 C -6.442,-13.622 -2.857,-5.676 0,0" /></g><g
           transform="translate(471.1587,50.2716)"
           id="g28"><path
             id="path30"
             style="fill:#242021;fill-opacity:1;fill-rule:nonzero;stroke:none"
             d="M 0,0 H 9.246 C 9.142,3.502 7.948,4.245 4.83,4.245 1.506,4.245 0.468,3.207 0,0 m 14.39,-15.3 c -2.65,-0.839 -6.597,-1.384 -9.61,-1.384 -7.482,0 -13.041,3.111 -13.041,13.475 0,10.167 4.883,13.179 12.52,13.179 8.832,0 12.676,-2.567 11.95,-15.547 H -0.053 c 0.104,-4.049 2.027,-4.789 5.87,-4.789 1.923,0 5.405,0.346 7.378,0.839 z" /></g><g
           transform="translate(504.7426,39.6104)"
           id="g32"><path
             id="path34"
             style="fill:#242021;fill-opacity:1;fill-rule:nonzero;stroke:none"
             d="m 0,0 c 3.535,0 4.78,0.542 4.78,6.859 0,5.232 -1.091,6.269 -4.623,6.269 -3.74,0 -4.469,-1.332 -4.469,-6.317 C -4.312,1.134 -3.011,0 0,0 m 2.234,19.494 c 6.65,0 10.65,-2.368 10.65,-12.485 0,-10.168 -4.104,-13.031 -13.142,-13.031 -7.533,0 -12.105,2.418 -12.105,15.547 0,16.683 3.585,19.15 13.56,19.842 4.051,0.295 7.428,0.788 10.285,1.826 V 24.677 C 9.248,23.739 6.027,23.345 1.715,22.999 c -4.622,-0.346 -5.505,-2.32 -6.027,-6.17 1.405,1.778 3.793,2.665 6.546,2.665" /></g><g
           transform="translate(530.9324,50.2716)"
           id="g36"><path
             id="path38"
             style="fill:#242021;fill-opacity:1;fill-rule:nonzero;stroke:none"
             d="M 0,0 H 9.246 C 9.142,3.502 7.948,4.245 4.83,4.245 1.506,4.245 0.468,3.207 0,0 m 14.39,-15.3 c -2.65,-0.839 -6.597,-1.384 -9.61,-1.384 -7.482,0 -13.041,3.111 -13.041,13.475 0,10.167 4.883,13.179 12.52,13.179 8.832,0 12.676,-2.567 11.95,-15.547 H -0.053 c 0.104,-4.049 2.027,-4.789 5.87,-4.789 1.923,0 5.405,0.346 7.378,0.839 z" /></g><g
           transform="translate(562.5635,53.0338)"
           id="g40"><path
             id="path42"
             style="fill:#242021;fill-opacity:1;fill-rule:nonzero;stroke:none"
             d="m 0,0 c -0.468,-6.465 -1.819,-13.423 -3.532,-18.754 h -8.365 c 2.234,7.256 3.793,16.681 4.364,25.27 h 21.611 v -25.27 H 6.131 L 6.131,0 Z" /></g><g
           transform="translate(600.4244,42.4232)"
           id="g44"><path
             id="path46"
             style="fill:#242021;fill-opacity:1;fill-rule:nonzero;stroke:none"
             d="m 0,0 c 0,1.974 -0.883,2.764 -2.442,2.764 h -6.442 v -5.577 h 6.599 C -0.83,-2.813 0,-1.874 0,0 m 0,8.441 c 5.248,0 8.261,-2.912 8.261,-8.342 0,-6.17 -3.013,-8.243 -8.261,-8.243 h -16.831 v 25.222 h 7.947 V 8.441 Z" /></g><g
           transform="translate(622.1758,44.2009)"
           id="g48"><path
             id="path50"
             style="fill:#242021;fill-opacity:1;fill-rule:nonzero;stroke:none"
             d="M 0,0 V -9.921 H -7.948 V 15.3 H 0 V 6.465 H 8.519 V 15.3 h 7.95 V -9.921 h -7.95 l 0,9.921 z" /></g><path
           id="path52"
           style="fill:#242021;fill-opacity:1;fill-rule:nonzero;stroke:none"
           d="m 681.053,34.28 h -8.001 v 25.221 h 8.001 z m -18.598,8.143 c 0,1.925 -0.885,2.765 -2.444,2.765 h -6.442 V 39.61 h 6.599 c 1.457,0 2.287,0.888 2.287,2.813 m 0,8.441 c 5.248,0 8.259,-2.912 8.259,-8.342 0,-6.17 -3.011,-8.242 -8.259,-8.242 h -16.833 v 25.221 h 7.947 v -8.637 z" /><g
           transform="translate(697.455,68.6799)"
           id="g54"><path
             id="path56"
             style="fill:#242021;fill-opacity:1;fill-rule:nonzero;stroke:none"
             d="m 0,0 c 0,-2.121 1.042,-2.566 3.173,-2.566 0.207,0 0.415,0 0.567,0.048 1.614,0.099 2.494,0.644 2.494,2.518 h 4.884 c 0,-4.886 -2.91,-7.058 -8.158,-7.058 -5.141,0 -8.152,2.172 -8.152,7.058 z M 7.586,-21.173 C 4.883,-25.962 1.665,-30.55 -1.453,-34.4 h -7.949 v 25.221 h 7.949 v -13.82 c 2.91,3.355 6.544,9.377 9.039,13.82 h 7.949 V -34.4 H 7.586 Z" /></g><g
           transform="translate(764.1479,40.7955)"
           id="g58"><path
             id="path60"
             style="fill:#242021;fill-opacity:1;fill-rule:nonzero;stroke:none"
             d="M 0,0 -1.817,-13.82 H -8.31 v 7.304 h -22.599 v 25.27 h 8 V 0 h 8.466 v 18.754 h 8.001 V 0 Z" /></g><g
           transform="translate(776.0358,50.2716)"
           id="g62"><path
             id="path64"
             style="fill:#242021;fill-opacity:1;fill-rule:nonzero;stroke:none"
             d="M 0,0 H 9.246 C 9.144,3.502 7.95,4.245 4.833,4.245 1.508,4.245 0.47,3.207 0,0 m 14.392,-15.3 c -2.652,-0.839 -6.599,-1.384 -9.61,-1.384 -7.484,0 -13.041,3.111 -13.041,13.475 0,10.167 4.884,13.179 12.52,13.179 8.83,0 12.676,-2.567 11.948,-15.547 h -16.26 c 0.102,-4.049 2.025,-4.789 5.87,-4.789 1.923,0 5.405,0.346 7.378,0.839 z" /></g><g
           transform="translate(805.8661,44.2009)"
           id="g66"><path
             id="path68"
             style="fill:#242021;fill-opacity:1;fill-rule:nonzero;stroke:none"
             d="M 0,0 V -9.921 H -7.95 V 15.3 H 0 V 6.465 H 8.517 V 15.3 h 7.95 V -9.921 H 8.517 V 0 Z" /></g><g
           transform="translate(843.3143,34.2797)"
           id="g70"><path
             id="path72"
             style="fill:#242021;fill-opacity:1;fill-rule:nonzero;stroke:none"
             d="m 0,0 h -7.945 v 18.754 h -8.573 v 6.516 h 25.04 v -6.516 l -8.522,0 z" /></g><g
           transform="translate(864.3003,41.7316)"
           id="g74"><path
             id="path76"
             style="fill:#242021;fill-opacity:1;fill-rule:nonzero;stroke:none"
             d="m 0,0 c 0,-1.134 1.766,-1.925 4.104,-1.925 3.79,0 4.985,1.581 4.985,6.91 0,6.121 -1.245,7.207 -5.036,7.207 C 2.651,12.192 0.936,11.946 0,11.6 Z m -8.001,16.732 c 2.859,1.038 7.899,1.778 12.054,1.778 9.038,0 13.036,-3.011 13.036,-13.327 0,-10.216 -4.675,-13.327 -11.27,-13.327 -2.596,0 -4.362,0.545 -5.819,1.137 v -9.921 h -8.001 z" /></g><g
           transform="translate(136.5683,154.2578)"
           id="g78"><path
             id="path80"
             style="fill:#242021;fill-opacity:1;fill-rule:nonzero;stroke:none"
             d="m 0,0 c 0,18.751 -18.529,28.421 -42.838,28.421 -21.347,0 -42.1,-12.839 -42.1,-32.288 -0.199,-3.334 0,-3.863 0,-3.863 h 33.681 v 3.863 c 0,4.07 3.683,6.931 7.9,6.931 4.07,0 6.804,-2.625 6.804,-6.166 0,-3.428 -3.672,-8.132 -9.444,-12.166 -17.577,-12.285 -38.002,-28.475 -38.941,-29.108 V -62.892 H 0 v 29.942 h -20.361 v -5.973 h -25.933 c 0,0 15.148,6.682 26.665,11.975 C -6.7,-21.022 0,-14.156 0,0" /></g><g
           transform="translate(0,157.4829)"
           id="g82"><path
             id="path84"
             style="fill:#242021;fill-opacity:1;fill-rule:nonzero;stroke:none"
             d="m 0,0 h 12.079 v -66.117 h 31.76 V 22.76 L 0,22.76 Z" /></g><g
           transform="translate(448.2247,182.6791)"
           id="g86"><path
             id="path88"
             style="fill:#242021;fill-opacity:1;fill-rule:nonzero;stroke:none"
             d="m 0,0 c -24.526,0 -46.946,-15.209 -46.946,-44.292 0,-28.393 20.338,-44.263 44.859,-44.263 H 34.54 V -65.97 H 5.751 c -9.094,0 -17.395,7.158 -17.395,17.99 0,9.572 5.992,17.557 17.707,17.557 h 6.69 v -7.985 H 34.54 L 34.54,0 H 12.753 Z" /></g><g
           transform="translate(490.1478,144.2707)"
           id="g90"><path
             id="path92"
             style="fill:#242021;fill-opacity:1;fill-rule:nonzero;stroke:none"
             d="m 0,0 h 21.773 v 7.985 h 7.34 V -50.147 H 62.672 V 7.985 H 69.83 V 0 H 91.612 V 38.408 H 0 Z" /></g><g
           transform="translate(839.2232,157.0198)"
           id="g94"><path
             id="path96"
             style="fill:#242021;fill-opacity:1;fill-rule:nonzero;stroke:none"
             d="M 0,0 H -18.463 V 25.659 H -52.031 V -62.896 H 0 c 19.785,0 35.83,14.1 35.83,33.153 C 35.83,-10.695 19.785,0 0,0 m -4.278,-40.233 h -14.185 v 18.335 h 14.185 c 4.788,0 8.66,-3.314 8.66,-9.175 0,-5.147 -3.872,-9.16 -8.66,-9.16" /></g><g
           transform="translate(881.8529,94.1237)"
           id="g98"><path
             id="path100"
             style="fill:#242021;fill-opacity:1;fill-rule:nonzero;stroke:none"
             d="M 0,0 H 74.3 V 22.585 H 33.573 V 34.206 H 66.415 V 54.269 H 33.573 V 65.951 H 74.3 V 88.555 H 0 Z" /></g><g
           transform="translate(1044.359,143.6616)"
           id="g102"><path
             id="path104"
             style="fill:#242021;fill-opacity:1;fill-rule:nonzero;stroke:none"
             d="m 0,0 c 6.099,3.617 7.427,10.518 7.427,15.004 0,15.384 -12.017,24.013 -26.839,24.013 h -58.491 v -88.555 c 0,0 54.907,0.099 64.559,0.099 15.426,0 27.944,11.862 27.944,27.85 C 14.6,-12.65 8.989,-2.643 0,0 m -44.344,18.978 h 12.693 c 4.672,0 7.602,-2.641 7.602,-7.319 0,-3.717 -2.782,-6.795 -7.602,-6.795 h -12.693 z m 17.513,-47.56 h -17.513 v 15.389 c 0,0 12.496,-0.008 17.513,0 5.681,0.01 8.625,-3.565 8.625,-7.437 0,-3.862 -3.165,-7.952 -8.625,-7.952" /></g><g
           transform="translate(697.9012,182.6792)"
           id="g106"><path
             id="path108"
             style="fill:#242021;fill-opacity:1;fill-rule:nonzero;stroke:none"
             d="m 0,0 c 0,0 -8.079,-49.221 -9.293,-56.383 -1.214,-7.162 -4.526,-9.587 -9.985,-9.587 h -0.256 v -22.586 c 21.991,0.123 37.054,-0.118 40.063,21.894 3.01,22.011 4.955,37.736 4.955,37.736 h 17.57 v -59.63 H 76.618 V 0 Z" /></g><g
           transform="translate(670.0423,118.862)"
           id="g110"><path
             id="path112"
             style="fill:#242021;fill-opacity:1;fill-rule:nonzero;stroke:none"
             d="M 0,0 C 6.707,23.978 17.851,63.817 17.851,63.817 H -18.65 L -31.976,16.179 -47.131,63.817 H -83.208 L -65.746,8.928 -33.658,8.822 C -37.628,-2.365 -44.259,-2.153 -55.542,-2.153 h -9.169 l -0.092,-22.585 h 14.017 c 26.343,0 44.079,0.76 50.786,24.738" /></g></g></g></g></svg>
